{
    "version": "1",
    "angleOfXAxisFromTrueNorth": 155.01,
    "angleFromTrueNorth":146.0,
    "error_radius":55,
    "aesUid": 722578305672282100,
    "angles":[
              0.00,
              90.00,
              131.79,
              180.00,
              270.00,
              311.79
              ],
    "nodes": [
              {
              "nodeId": 0,
              "location": {
              "x": 35,
              "y": 279
              }
              },
              {
              "nodeId": 1,
              "location": {
              "x": 54.6,
              "y": 260
              }
              },
              {
              "nodeId": 2,
              "location": {
              "x": 54.6,
              "y": 180.5
              }
              },
              {
              "nodeId": 3,
              "location": {
              "x": 54.6,
              "y": 101
              }
              },
              {
              "nodeId": 4,
              "location": {
              "x": 121,
              "y": 101
              }
              },
              {
              "nodeId": 5,
              "location": {
              "x": 121,
              "y": 180.5
              }
              },
              {
              "nodeId": 6,
              "location": {
              "x": 121,
              "y": 260
              }
              },
              {
              "nodeId": 7,
              "location": {
              "x": 211.5,
              "y": 260
              }
              },
              {
              "nodeId": 8,
              "location": {
              "x": 211.5,
              "y": 102
              }
              },
              {
              "nodeId": 9,
              "location": {
              "x": 187,
              "y": 93
              }
              },
              {
              "nodeId": 10,
              "location": {
              "x": 187,
              "y": 45
              }
              },
              {
              "nodeId": 11,
              "location": {
              "x": 128,
              "y": 93
              }
              },
              {
              "nodeId": 12,
              "location": {
              "x": 253,
              "y": 260
              }
              },
              {
              "nodeId": 13,
              "location": {
              "x": 283,
              "y": 222
              }
              },
              {
              "nodeId": 14,
              "location": {
              "x": 318,
              "y": 222
              }
              },
              {
              "nodeId": 15,
              "location": {
              "x": 283,
              "y": 102
              }
              },
              {
              "nodeId": 16,
              "location": {
              "x": 336,
              "y": 102
              }
              }
              ],
    "segments": [
                 {
                 "startEndNodes": [
                                   0,
                                   1
                                   ],
                 "angleFromXAxis": 135.89053625336055
                 },
                 {
                 "startEndNodes": [
                                   1,
                                   2
                                   ],
                 "angleFromXAxis": 90
                 },
                 {
                 "startEndNodes": [
                                   2,
                                   3
                                   ],
                 "angleFromXAxis": 90
                 },
                 {
                 "startEndNodes": [
                                   3,
                                   4
                                   ],
                 "angleFromXAxis": 180
                 },
                 {
                 "startEndNodes": [
                                   4,
                                   5
                                   ],
                 "angleFromXAxis": 270
                 },
                 {
                 "startEndNodes": [
                                   5,
                                   6
                                   ],
                 "angleFromXAxis": 270
                 },
                 {
                 "startEndNodes": [
                                   2,
                                   5
                                   ],
                 "angleFromXAxis": 180
                 },
                 {
                 "startEndNodes": [
                                   1,
                                   6
                                   ],
                 "angleFromXAxis": 180
                 },
                 {
                 "startEndNodes": [
                                   6,
                                   7
                                   ],
                 "angleFromXAxis": 180
                 },
                 {
                 "startEndNodes": [
                                   7,
                                   8
                                   ],
                 "angleFromXAxis": 90
                 },
                 {
                 "startEndNodes": [
                                   8,
                                   9
                                   ],
                 "angleFromXAxis": 20.170653411850424
                 },
                 {
                 "startEndNodes": [
                                   9,
                                   10
                                   ],
                 "angleFromXAxis": 90
                 },
                 {
                 "startEndNodes": [
                                   9,
                                   11
                                   ],
                 "angleFromXAxis": 0
                 },
                 {
                 "startEndNodes": [
                                   11,
                                   4
                                   ],
                 "angleFromXAxis": 311.18592516570965
                 },
                 {
                 "startEndNodes": [
                                   7,
                                   12
                                   ],
                 "angleFromXAxis": 180
                 },
                 {
                 "startEndNodes": [
                                   12,
                                   13
                                   ],
                 "angleFromXAxis": 128.29016319224309
                 },
                 {
                 "startEndNodes": [
                                   13,
                                   14
                                   ],
                 "angleFromXAxis": 180
                 },
                 {
                 "startEndNodes": [
                                   13,
                                   15
                                   ],
                 "angleFromXAxis": 90
                 },
                 {
                 "startEndNodes": [
                                   15,
                                   16
                                   ],
                 "angleFromXAxis": 180
                 },
                 {
                 "startEndNodes": [
                                   15,
                                   8
                                   ],
                 "angleFromXAxis": 0
                 }
                 ],

}
